{
    "editor": [
        {
            "icon": "",
            "key": "settings",
            "header": "Settings",
            "disabled": false,
            "fields": [
                {
                    "key": "title",
                    "header": "Title",
                    "type": "text"
                },
                {
                    "key": "titleFont",
                    "header": "Google Font Name",
                    "type": "text"
                },
                {
                    "key": "titleColor",
                    "header": "Title Color",
                    "type": "color"
                },
                {
                    "key": "description",
                    "header": "description",
                    "type": "text"
                },
                {
                    "key": "desColor",
                    "header": "Description Color",
                    "type": "color"
                },
                {
                    "key": "labelColor",
                    "header": "Label Color",
                    "type": "color"
                },
                {
                    "key": "backgroundImage",
                    "header": "Background Image",
                    "type": "image"
                },
                {
                    "key": "items",
                    "header": "Items",
                    "type": "array",
                    "fields": [
                        {
                            "key": "item1",
                            "header": "Item 1",
                            "type": "array",
                            "fields": [
                                {
                                    "key": "image",
                                    "header": "Item 1 Image",
                                    "type": "image"
                                },
                                {
                                    "key": "label",
                                    "header": "Item 1 Label",
                                    "type": "text"
                                },
                                {
                                    "key": "probability",
                                    "header": "Probabilty of item",
                                    "type": "number"
                                }
                            ]
                        },
                        {
                            "key": "item2",
                            "header": "Item 2",
                            "type": "array",
                            "fields": [
                                {
                                    "key": "image",
                                    "header": "Item 2 Image",
                                    "type": "image"
                                },
                                {
                                    "key": "label",
                                    "header": "Item 2 Label",
                                    "type": "text"
                                },
                                {
                                    "key": "probability",
                                    "header": "Probabilty of item",
                                    "type": "number"
                                }
                            ]
                        },
                        {
                            "key": "item3",
                            "header": "Item 3",
                            "type": "array",
                            "fields": [
                                {
                                    "key": "image",
                                    "header": "Item 3 Image",
                                    "type": "image"
                                },
                                {
                                    "key": "label",
                                    "header": "Item 3 Label",
                                    "type": "text"
                                },
                                {
                                    "key": "probability",
                                    "header": "Probabilty of item",
                                    "type": "number"
                                }
                            ]
                        },
                        {
                            "key": "item4",
                            "header": "Item 4",
                            "type": "array",
                            "fields": [
                                {
                                    "key": "image",
                                    "header": "Item 4 Image",
                                    "type": "image"
                                },
                                {
                                    "key": "label",
                                    "header": "Item 4 Label",
                                    "type": "text"
                                },
                                {
                                    "key": "probability",
                                    "header": "Probabilty of item",
                                    "type": "number"
                                }
                            ]
                        },
                        {
                            "key": "item5",
                            "header": "Item 5",
                            "type": "array",
                            "fields": [
                                {
                                    "key": "image",
                                    "header": "Item 5 Image",
                                    "type": "image"
                                },
                                {
                                    "key": "label",
                                    "header": "Item 5 Label",
                                    "type": "text"
                                },
                                {
                                    "key": "probability",
                                    "header": "Probabilty of item",
                                    "type": "number"
                                }
                            ]
                        }
                    ]
                }
            ]
        }
    ],
    "config": {
        "settings": {
            "title": "Fortune Teller",
            "titleFont": "Sanchez",
            "titleColor": "#ffffff",
            "description": "Scratch the crystal ball",
            "desColor": "#fcfbfb",
            "backgroundImage": "https://frontend.apps.playcent.com/0bda537cde9745b8956a20343095ae3b/assets/32c26rnfs0s95am5g4n40xdpclsm.gif",
            "labelColor": "#ffffff",
            "items": "Ship"
        }
    }
}